<?xml version="1.0" encoding="UTF-8"?>
<svg width="96px" height="96px" version="1.1" viewBox="0 0 96 96" xmlns="http://www.w3.org/2000/svg">
 <g transform="matrix(.14475 0 0 .12691 684.09 233.06)">
  <polygon transform="matrix(.88164 0 0 1.5225 -4628.9 -1791.4)" points="378.46 306.27 316.02 306.09 316.02 439.84 378.46 439.84 378.46 391.2 361.74 375.1 378.46 357.81" fill="#05232e"/>
  <rect x="-4328.3" y="-1247.9" width="32.904" height="48.457" fill="#325763" stroke-width="1.1958"/>
  <path d="m-4534.8-1608.5c-57.004 0-103.65 65.239-103.65 144.97h133.2v51.049c0 53.917-16.391 102.46-42.568 136.48h102.68v-332.5h-89.663z" fill="#6b8f9c" stroke-width="1.2271"/>
  <g transform="matrix(.9854 0 0 1.4512 -4665.3 -1763)" fill="#325763">
   <rect x="128.38" y="143.66" width="33.391" height="33.391"/>
   <path d="m453.05 275.21 9e-3 52.944c0 9.206-7.49 16.696-16.696 16.696s-16.696-7.49-16.696-16.696v-33.391h-33.391v33.391c0 27.618 22.469 50.087 50.087 50.087s50.087-22.469 50.087-50.087l-9e-3 -50.087-15.945-22.817c-5.194 5.193-11.13 11.13-17.446 19.96z"/>
  </g>
  <path d="m-4165.2-1388.3h-22.006s-56.873-52.043-66.286-60.39c0 17.277 0.4999 35.703 0.4999 35.703v9.877c0 19.321 13.777 35.792 32.948 41.894 5.1361 1.635 10.656 2.5332 16.408 2.5332h38.442z" fill="#f6d76f" stroke-width=".93491"/>
  <polygon transform="matrix(.9854 0 0 1.4729 -4666.2 -1771.4)" points="378.46 306.27 378.44 257.67 378.44 259.03 307.76 176.42 253.07 110.54 219.7 110.54 219.7 439.84 282.14 439.84 282.14 391.2 271.03 373.43 282.14 357.81 282.14 326.53 316.02 319.4" fill="#325763"/>
  <g transform="matrix(12.318 0 0 18.221 -7572.4 -6058.7)" stroke-width=".08">
   <rect x="255.81" y="264.14" width="2.6713" height="2.6713" fill="#6b8f9c"/>
   <path d="m265.8 252.6 3.5559 1.1856s2.671 0.89056 2.674 0.89152v0.0576c0.0309 0.70936 0.61592 1.2774 1.3327 1.2774h1.3389l-9.6e-4 -5.7878c-8.8e-4 0 0-3.5914 0-3.5914 0-2.9384-2.4042-5.3426-5.3426-5.3426h-3.5594l-3.8515 5.0681z" fill="#325763"/>
   <path d="m238.19 261.48c-1.4754 0-2.6713 1.196-2.6713 2.6713v3.5618c1.4753 0 2.6713-1.1959 2.6713-2.6713l1.1576-1.8706z" fill="#6b8f9c"/>
   <path d="m238.19 251.44v19.272h5.3789v-4.0864l-1.112-1.4462 1.112-1.3591c0.77842-0.42342 1.4981-0.93674 2.1462-1.5242 2.1732-1.9694 3.5342-4.7797 3.5342-7.9012v-2.9554z" fill="#325763" stroke-width=".085072"/>
  </g>
  <g transform="matrix(1.0059 0 0 1.4512 -4675 -1767.9)" fill="#6b8f9c">
   <rect x="68.883" y="356.17" width="33.391" height="33.391"/>
   <path d="m378.44 259.03v-186.87h-86.985c-21.197 0-38.381 17.183-38.381 38.381v106.68z"/>
  </g>
 </g>
</svg>

