<?xml version="1.0" encoding="UTF-8"?>
<svg id="svg_people_1" width="96px" height="96px" version="1.1" viewBox="0 0 96 96" xmlns="http://www.w3.org/2000/svg" xmlns:cc="http://creativecommons.org/ns#" xmlns:dc="http://purl.org/dc/elements/1.1/" xmlns:rdf="http://www.w3.org/1999/02/22-rdf-syntax-ns#">
 <g transform="matrix(.14475 0 0 .12691 684.09 233.06)">
  <rect transform="rotate(90)" x="-1677.7" y="4201.3" width="388.51" height="387.71" ry="175.46" fill="#d7dd0c" style="paint-order:normal"/>
  <rect transform="rotate(90)" x="-1404.3" y="4300.9" width="195.75" height="188.4" ry="85.258" fill="#d7dd0c" style="paint-order:normal"/>
  <rect x="-4518.9" y="-1568" width="250.39" height="241.61" ry="120.81" fill="#fff" style="paint-order:normal"/>
  <path d="m-4369.7-1459.2a24.85 24.964 0 0 1-23.783 25.988 24.85 24.964 0 0 1-25.872-23.888 24.85 24.964 0 0 1 23.774-25.996 24.85 24.964 0 0 1 25.881 23.88l-24.827 1.0624z" fill="#94c532" style="paint-order:normal"/>
  <rect x="-4438.6" y="-1298.3" width="87.504" height="55.332" ry="24.215" fill="#018792" style="paint-order:normal"/>
  <rect x="-4417.4" y="-1279.7" width="42.376" height="19.313" ry="9.6566" fill="#152e3c" style="paint-order:normal"/>
  <path d="m-4397.9-1310.8a134.77 141.17 0 0 1-128.35-128.2h268.2a134.77 141.17 0 0 1-139.85 128.2z" fill="#04afaf" style="paint-order:normal"/>
  <g fill="#94c532">
   <path d="m-4367.9-1682.5a30.098 75.565 0 0 1-28.806 78.662 30.098 75.565 0 0 1-31.337-72.308 30.098 75.565 0 0 1 28.796-78.687 30.098 75.565 0 0 1 31.347 72.281l-30.071 3.2157z" style="paint-order:normal"/>
   <path transform="matrix(.8919 -.45224 .45077 .89264 0 0)" d="m-3287.8-3505a21.618 48.971 0 0 1-20.69 50.978 21.618 48.971 0 0 1-22.508-46.86 21.618 48.971 0 0 1 20.683-50.994 21.618 48.971 0 0 1 22.515 46.843l-21.599 2.084z" style="paint-order:normal"/>
   <path transform="matrix(.92962 .36851 -.36722 .93013 0 0)" d="m-4536.2 57.567a21.615 48.978 0 0 1-20.687 50.985 21.615 48.978 0 0 1-22.505-46.867 21.615 48.978 0 0 1 20.68-51.001 21.615 48.978 0 0 1 22.512 46.85l-21.596 2.0843z" style="paint-order:normal"/>
  </g>
 </g>
</svg>
